Engine\Binaries\Win64\CrashReportClient.exe	2017-03-26T03:27:51.689Z
FunnyFishing\Binaries\Win64\FunnyFishing.exe	2017-09-28T20:30:43.943Z
FunnyFishing.exe	2017-09-28T20:31:36.264Z
Engine\Extras\Redist\en-us\UE4PrereqSetup_x64.exe	2017-03-26T03:32:41.591Z
Engine\Binaries\ThirdParty\PhysX\Win64\VS2015\PxFoundationPROFILE_x64.dll	2017-03-26T03:27:23.484Z
Engine\Binaries\ThirdParty\PhysX\Win64\VS2015\PxPvdSDKPROFILE_x64.dll	2017-03-26T03:27:23.808Z
Engine\Binaries\ThirdParty\PhysX\Win64\VS2015\PhysX3PROFILE_x64.dll	2017-03-26T03:27:23.478Z
Engine\Binaries\ThirdParty\PhysX\Win64\VS2015\PhysX3CookingPROFILE_x64.dll	2017-03-26T03:27:23.466Z
Engine\Binaries\ThirdParty\PhysX\Win64\VS2015\PhysX3CommonPROFILE_x64.dll	2017-03-26T03:27:23.458Z
Engine\Binaries\ThirdParty\PhysX\Win64\VS2015\APEX_ClothingPROFILE_x64.dll	2017-03-26T03:27:21.919Z
Engine\Binaries\ThirdParty\PhysX\Win64\VS2015\APEX_DestructiblePROFILE_x64.dll	2017-03-26T03:27:22.048Z
Engine\Binaries\ThirdParty\PhysX\Win64\VS2015\APEX_LegacyPROFILE_x64.dll	2017-03-26T03:27:22.683Z
Engine\Binaries\ThirdParty\PhysX\Win64\VS2015\ApexFrameworkPROFILE_x64.dll	2017-03-26T03:27:22.802Z
Engine\Binaries\ThirdParty\Ogg\Win64\VS2015\libogg_64.dll	2017-03-26T03:27:19.316Z
Engine\Binaries\ThirdParty\Vorbis\Win64\VS2015\libvorbis_64.dll	2017-03-26T03:27:25.365Z
Engine\Binaries\ThirdParty\Vorbis\Win64\VS2015\libvorbisfile_64.dll	2017-03-26T03:27:25.378Z
Engine\Binaries\ThirdParty\Oculus\OculusMobile\SDK_1_0_3\Win64\VrApiShim.dll	2017-03-26T03:27:19.308Z
Engine\Binaries\ThirdParty\OpenVR\OpenVRv1_0_2\Win64\openvr_api.dll	2017-03-26T03:27:19.384Z
Engine\Build\Build.version	2017-03-26T03:29:00.990Z
Engine\Content\Slate\Checkerboard.png	2017-03-26T03:30:01.811Z
Engine\Content\Slate\Common\BoxShadow.png	2017-03-26T03:30:01.814Z
Engine\Content\Slate\Common\Button.png	2017-03-26T03:30:01.816Z
Engine\Content\Slate\Common\Button_Disabled.png	2017-03-26T03:30:01.820Z
Engine\Content\Slate\Common\Button_Hovered.png	2017-03-26T03:30:01.822Z
Engine\Content\Slate\Common\Button_Pressed.png	2017-03-26T03:30:01.825Z
Engine\Content\Slate\Common\Check.png	2017-03-26T03:30:01.827Z
Engine\Content\Slate\Common\CheckBox.png	2017-03-26T03:30:01.829Z
Engine\Content\Slate\Common\CheckBox_Checked.png	2017-03-26T03:30:01.831Z
Engine\Content\Slate\Common\CheckBox_Checked_Hovered.png	2017-03-26T03:30:01.834Z
Engine\Content\Slate\Common\CheckBox_Hovered.png	2017-03-26T03:30:01.837Z
Engine\Content\Slate\Common\CheckBox_Undetermined.png	2017-03-26T03:30:01.839Z
Engine\Content\Slate\Common\CheckBox_Undetermined_Hovered.png	2017-03-26T03:30:01.842Z
Engine\Content\Slate\Common\Checker.png	2017-03-26T03:30:01.844Z
Engine\Content\Slate\Common\Circle.png	2017-03-26T03:30:01.846Z
Engine\Content\Slate\Common\ColorGradingWheel.png	2017-03-26T03:30:01.851Z
Engine\Content\Slate\Common\ColorPicker_Mode_16x.png	2017-03-26T03:30:01.854Z
Engine\Content\Slate\Common\ColorPicker_Separator.png	2017-03-26T03:30:01.856Z
Engine\Content\Slate\Common\ColorPicker_SliderHandle.png	2017-03-26T03:30:01.859Z
Engine\Content\Slate\Common\ColorSpectrum.png	2017-03-26T03:30:01.862Z
Engine\Content\Slate\Common\ColorWheel.png	2017-03-26T03:30:01.866Z
Engine\Content\Slate\Common\ColumnHeader.png	2017-03-26T03:30:01.868Z
Engine\Content\Slate\Common\ColumnHeaderMenuButton_Hovered.png	2017-03-26T03:30:01.877Z
Engine\Content\Slate\Common\ColumnHeaderMenuButton_Normal.png	2017-03-26T03:30:01.879Z
Engine\Content\Slate\Common\ColumnHeader_Arrow.png	2017-03-26T03:30:01.871Z
Engine\Content\Slate\Common\ColumnHeader_Hovered.png	2017-03-26T03:30:01.874Z
Engine\Content\Slate\Common\ComboArrow.png	2017-03-26T03:30:01.882Z
Engine\Content\Slate\Common\CursorPing.png	2017-03-26T03:30:01.885Z
Engine\Content\Slate\Common\DebugBorder.PNG	2017-03-26T03:30:01.890Z
Engine\Content\Slate\Common\Delimiter.png	2017-03-26T03:30:01.893Z
Engine\Content\Slate\Common\DownArrow.png	2017-03-26T03:30:01.899Z
Engine\Content\Slate\Common\DropZoneIndicator_Above.png	2017-03-26T03:30:01.902Z
Engine\Content\Slate\Common\DropZoneIndicator_Below.png	2017-03-26T03:30:01.905Z
Engine\Content\Slate\Common\DropZoneIndicator_Onto.png	2017-03-26T03:30:01.909Z
Engine\Content\Slate\Common\EditableTextSelectionBackground.png	2017-03-26T03:30:01.912Z
Engine\Content\Slate\Common\EventMessage_Default.png	2017-03-26T03:30:01.915Z
Engine\Content\Slate\Common\ExpansionButton_CloseOverlay.png	2017-03-26T03:30:01.919Z
Engine\Content\Slate\Common\GroupBorder.png	2017-03-26T03:30:01.921Z
Engine\Content\Slate\Common\HeaderSplitterGrip.PNG	2017-03-26T03:30:01.924Z
Engine\Content\Slate\Common\LastColumnHeader_Hovered.png	2017-03-26T03:30:01.927Z
Engine\Content\Slate\Common\NoiseBackground.png	2017-03-26T03:30:01.931Z
Engine\Content\Slate\Common\ProgressBar_Background.png	2017-03-26T03:30:01.934Z
Engine\Content\Slate\Common\ProgressBar_Fill.png	2017-03-26T03:30:01.938Z
Engine\Content\Slate\Common\ProgressBar_Marquee.PNG	2017-03-26T03:30:01.941Z
Engine\Content\Slate\Common\RadioButton_SelectedBack_16x.png	2017-03-26T03:30:01.948Z
Engine\Content\Slate\Common\RadioButton_Selected_16x.png	2017-03-26T03:30:01.945Z
Engine\Content\Slate\Common\RadioButton_Unselected_16x.png	2017-03-26T03:30:01.950Z
Engine\Content\Slate\Common\RoundedSelection_16x.PNG	2017-03-26T03:30:01.953Z
Engine\Content\Slate\Common\Scrollbar_Background_Horizontal.png	2017-03-26T03:30:01.955Z
Engine\Content\Slate\Common\Scrollbar_Background_Vertical.png	2017-03-26T03:30:01.957Z
Engine\Content\Slate\Common\Scrollbar_Thumb.png	2017-03-26T03:30:01.959Z
Engine\Content\Slate\Common\ScrollBorderShadowBottom.png	2017-03-26T03:30:01.961Z
Engine\Content\Slate\Common\ScrollBorderShadowTop.png	2017-03-26T03:30:01.964Z
Engine\Content\Slate\Common\ScrollBoxShadowBottom.png	2017-03-26T03:30:01.966Z
Engine\Content\Slate\Common\ScrollBoxShadowLeft.png	2017-03-26T03:30:01.969Z
Engine\Content\Slate\Common\ScrollBoxShadowRight.png	2017-03-26T03:30:01.972Z
Engine\Content\Slate\Common\ScrollBoxShadowTop.png	2017-03-26T03:30:01.975Z
Engine\Content\Slate\Common\SearchGlass.PNG	2017-03-26T03:30:01.981Z
Engine\Content\Slate\Common\Selection.png	2017-03-26T03:30:01.984Z
Engine\Content\Slate\Common\Selector.png	2017-03-26T03:30:01.987Z
Engine\Content\Slate\Common\Separator.png	2017-03-26T03:30:01.990Z
Engine\Content\Slate\Common\SmallCheck.png	2017-03-26T03:30:01.992Z
Engine\Content\Slate\Common\SmallCheckBox.png	2017-03-26T03:30:01.997Z
Engine\Content\Slate\Common\SmallCheckBox_Checked.png	2017-03-26T03:30:02.000Z
Engine\Content\Slate\Common\SmallCheckBox_Checked_Hovered.png	2017-03-26T03:30:02.003Z
Engine\Content\Slate\Common\SmallCheckBox_Hovered.png	2017-03-26T03:30:02.005Z
Engine\Content\Slate\Common\SmallCheckBox_Undetermined.png	2017-03-26T03:30:02.008Z
Engine\Content\Slate\Common\SmallCheckBox_Undetermined_Hovered.png	2017-03-26T03:30:02.011Z
Engine\Content\Slate\Common\SortDownArrow.png	2017-03-26T03:30:02.014Z
Engine\Content\Slate\Common\SortDownArrows.png	2017-03-26T03:30:02.020Z
Engine\Content\Slate\Common\SortUpArrow.png	2017-03-26T03:30:02.022Z
Engine\Content\Slate\Common\SortUpArrows.png	2017-03-26T03:30:02.025Z
Engine\Content\Slate\Common\SpinArrows.png	2017-03-26T03:30:02.028Z
Engine\Content\Slate\Common\Spinbox.PNG	2017-03-26T03:30:02.030Z
Engine\Content\Slate\Common\Spinbox_Fill.png	2017-03-26T03:30:02.035Z
Engine\Content\Slate\Common\Spinbox_Fill_Dark.png	2017-03-26T03:30:02.038Z
Engine\Content\Slate\Common\Spinbox_Fill_Hovered.png	2017-03-26T03:30:02.041Z
Engine\Content\Slate\Common\Spinbox_Fill_Hovered_Dark.png	2017-03-26T03:30:02.044Z
Engine\Content\Slate\Common\Spinbox_Hovered.png	2017-03-26T03:30:02.046Z
Engine\Content\Slate\Common\SplitterHandleHighlight.png	2017-03-26T03:30:02.049Z
Engine\Content\Slate\Common\SubmenuArrow.png	2017-03-26T03:30:02.051Z
Engine\Content\Slate\Common\TableViewHeader.png	2017-03-26T03:30:02.055Z
Engine\Content\Slate\Common\TableViewMajorColumn.png	2017-03-26T03:30:02.057Z
Engine\Content\Slate\Common\TextBlockHighlightShape.png	2017-03-26T03:30:02.059Z
Engine\Content\Slate\Common\TextBlockHighlightShape_Empty.png	2017-03-26T03:30:02.061Z
Engine\Content\Slate\Common\TextBox.png	2017-03-26T03:30:02.064Z
Engine\Content\Slate\Common\TextBoxLabelBorder.PNG	2017-03-26T03:30:02.083Z
Engine\Content\Slate\Common\TextBox_Dark.png	2017-03-26T03:30:02.066Z
Engine\Content\Slate\Common\TextBox_Hovered.png	2017-03-26T03:30:02.069Z
Engine\Content\Slate\Common\TextBox_Hovered_Dark.png	2017-03-26T03:30:02.073Z
Engine\Content\Slate\Common\TextBox_ReadOnly.png	2017-03-26T03:30:02.075Z
Engine\Content\Slate\Common\TextBox_Special.png	2017-03-26T03:30:02.077Z
Engine\Content\Slate\Common\TextBox_Special_Hovered.png	2017-03-26T03:30:02.080Z
Engine\Content\Slate\Common\Throbber_Piece.png	2017-03-26T03:30:02.085Z
Engine\Content\Slate\Common\TreeArrow_Collapsed.png	2017-03-26T03:30:02.088Z
Engine\Content\Slate\Common\TreeArrow_Collapsed_Hovered.png	2017-03-26T03:30:02.090Z
Engine\Content\Slate\Common\TreeArrow_Expanded.png	2017-03-26T03:30:02.092Z
Engine\Content\Slate\Common\TreeArrow_Expanded_Hovered.png	2017-03-26T03:30:02.097Z
Engine\Content\Slate\Common\UpArrow.png	2017-03-26T03:30:02.100Z
Engine\Content\Slate\Common\VolumeControl_High.png	2017-03-26T03:30:02.103Z
Engine\Content\Slate\Common\VolumeControl_Low.png	2017-03-26T03:30:02.106Z
Engine\Content\Slate\Common\VolumeControl_Mid.png	2017-03-26T03:30:02.108Z
Engine\Content\Slate\Common\VolumeControl_Muted.png	2017-03-26T03:30:02.111Z
Engine\Content\Slate\Common\VolumeControl_Off.png	2017-03-26T03:30:02.114Z
Engine\Content\Slate\Common\WhiteGroupBorder.png	2017-03-26T03:30:02.117Z
Engine\Content\Slate\Common\X.PNG	2017-03-26T03:30:02.185Z
Engine\Content\Slate\Common\Window\WindowBackground.png	2017-03-26T03:30:02.120Z
Engine\Content\Slate\Common\Window\WindowBorder.png	2017-03-26T03:30:02.123Z
Engine\Content\Slate\Common\Window\WindowButton_Close_Hovered.png	2017-03-26T03:30:02.126Z
Engine\Content\Slate\Common\Window\WindowButton_Close_Normal.png	2017-03-26T03:30:02.130Z
Engine\Content\Slate\Common\Window\WindowButton_Close_Pressed.png	2017-03-26T03:30:02.133Z
Engine\Content\Slate\Common\Window\WindowButton_Maximize_Disabled.png	2017-03-26T03:30:02.138Z
Engine\Content\Slate\Common\Window\WindowButton_Maximize_Hovered.png	2017-03-26T03:30:02.141Z
Engine\Content\Slate\Common\Window\WindowButton_Maximize_Normal.png	2017-03-26T03:30:02.143Z
Engine\Content\Slate\Common\Window\WindowButton_Maximize_Pressed.png	2017-03-26T03:30:02.146Z
Engine\Content\Slate\Common\Window\WindowButton_Minimize_Disabled.png	2017-03-26T03:30:02.150Z
Engine\Content\Slate\Common\Window\WindowButton_Minimize_Hovered.png	2017-03-26T03:30:02.153Z
Engine\Content\Slate\Common\Window\WindowButton_Minimize_Normal.png	2017-03-26T03:30:02.158Z
Engine\Content\Slate\Common\Window\WindowButton_Minimize_Pressed.png	2017-03-26T03:30:02.161Z
Engine\Content\Slate\Common\Window\WindowButton_Restore_Hovered.png	2017-03-26T03:30:02.164Z
Engine\Content\Slate\Common\Window\WindowButton_Restore_Normal.png	2017-03-26T03:30:02.167Z
Engine\Content\Slate\Common\Window\WindowButton_Restore_Pressed.png	2017-03-26T03:30:02.170Z
Engine\Content\Slate\Common\Window\WindowOutline.png	2017-03-26T03:30:02.174Z
Engine\Content\Slate\Common\Window\WindowTitle.png	2017-03-26T03:30:02.177Z
Engine\Content\Slate\Common\Window\WindowTitle_Flashing.png	2017-03-26T03:30:02.180Z
Engine\Content\Slate\Common\Window\WindowTitle_Inactive.png	2017-03-26T03:30:02.182Z
Engine\Content\Slate\CrashTracker\MouseCursor.png	2017-03-26T03:30:02.188Z
Engine\Content\Slate\CrashTracker\Record.png	2017-03-26T03:30:02.193Z
Engine\Content\Slate\Docking\AppTabContentArea.png	2017-03-26T03:30:02.213Z
Engine\Content\Slate\Docking\AppTabWellSeparator.png	2017-03-26T03:30:02.216Z
Engine\Content\Slate\Docking\AppTab_Active.png	2017-03-26T03:30:02.197Z
Engine\Content\Slate\Docking\AppTab_ColorOverlay.png	2017-03-26T03:30:02.201Z
Engine\Content\Slate\Docking\AppTab_Foreground.png	2017-03-26T03:30:02.204Z
Engine\Content\Slate\Docking\AppTab_Hovered.png	2017-03-26T03:30:02.206Z
Engine\Content\Slate\Docking\AppTab_Inactive.png	2017-03-26T03:30:02.209Z
Engine\Content\Slate\Docking\CloseApp_Hovered.png	2017-03-26T03:30:02.218Z
Engine\Content\Slate\Docking\CloseApp_Normal.png	2017-03-26T03:30:02.221Z
Engine\Content\Slate\Docking\CloseApp_Pressed.png	2017-03-26T03:30:02.223Z
Engine\Content\Slate\Docking\DockingIndicator_Center.png	2017-03-26T03:30:02.227Z
Engine\Content\Slate\Docking\OuterDockingIndicator.png	2017-03-26T03:30:02.231Z
Engine\Content\Slate\Docking\ShowTabwellButton_Hovered.png	2017-03-26T03:30:02.234Z
Engine\Content\Slate\Docking\ShowTabwellButton_Normal.png	2017-03-26T03:30:02.238Z
Engine\Content\Slate\Docking\ShowTabwellButton_Pressed.png	2017-03-26T03:30:02.241Z
Engine\Content\Slate\Docking\TabContentArea.png	2017-03-26T03:30:02.259Z
Engine\Content\Slate\Docking\TabWellSeparator.png	2017-03-26T03:30:02.261Z
Engine\Content\Slate\Docking\Tab_Active.png	2017-03-26T03:30:02.244Z
Engine\Content\Slate\Docking\Tab_ColorOverlay.png	2017-03-26T03:30:02.248Z
Engine\Content\Slate\Docking\Tab_Foreground.png	2017-03-26T03:30:02.251Z
Engine\Content\Slate\Docking\Tab_Hovered.png	2017-03-26T03:30:02.254Z
Engine\Content\Slate\Docking\Tab_Inactive.png	2017-03-26T03:30:02.256Z
Engine\Content\Slate\Fonts\DroidSans.tps	2017-03-26T03:30:02.265Z
Engine\Content\Slate\Fonts\DroidSansFallback.ttf	2017-03-26T03:30:02.290Z
Engine\Content\Slate\Fonts\DroidSansMono.ttf	2017-03-26T03:30:02.293Z
Engine\Content\Slate\Fonts\NanumGothic.tps	2017-03-26T03:30:02.295Z
Engine\Content\Slate\Fonts\NanumGothic.ttf	2017-03-26T03:30:02.317Z
Engine\Content\Slate\Fonts\Noto.tps	2017-03-26T03:30:02.323Z
Engine\Content\Slate\Fonts\NotoNaskhArabicUI-Regular.ttf	2017-03-26T03:30:02.327Z
Engine\Content\Slate\Fonts\Roboto-Bold.ttf	2017-03-26T03:30:02.330Z
Engine\Content\Slate\Fonts\Roboto-Light.ttf	2017-03-26T03:30:02.333Z
Engine\Content\Slate\Fonts\Roboto-Regular.ttf	2017-03-26T03:30:02.338Z
Engine\Content\Slate\Fonts\Roboto.tps	2017-03-26T03:30:02.340Z
Engine\Content\Slate\Icons\BackIcon.png	2017-03-26T03:30:02.342Z
Engine\Content\Slate\Icons\Cross_12x.png	2017-03-26T03:30:02.344Z
Engine\Content\Slate\Icons\cursor_cardinal_cross.png	2017-03-26T03:30:02.347Z
Engine\Content\Slate\Icons\cursor_grab.png	2017-03-26T03:30:02.349Z
Engine\Content\Slate\Icons\DefaultAppIcon.png	2017-03-26T03:30:02.352Z
Engine\Content\Slate\Icons\denied_16x.png	2017-03-26T03:30:02.355Z
Engine\Content\Slate\Icons\ellipsis_12x.png	2017-03-26T03:30:02.387Z
Engine\Content\Slate\Icons\Empty_14x.png	2017-03-26T03:30:02.389Z
Engine\Content\Slate\Icons\eyedropper_16px.png	2017-03-26T03:30:02.392Z
Engine\Content\Slate\Icons\icon_Downloads_16x.png	2017-03-26T03:30:02.395Z
Engine\Content\Slate\Icons\icon_error_16x.png	2017-03-26T03:30:02.397Z
Engine\Content\Slate\Icons\icon_generic_toolbar.png	2017-03-26T03:30:02.401Z
Engine\Content\Slate\Icons\icon_help_16x.png	2017-03-26T03:30:02.405Z
Engine\Content\Slate\Icons\icon_info_16x.png	2017-03-26T03:30:02.408Z
Engine\Content\Slate\Icons\icon_redo_16px.png	2017-03-26T03:30:02.410Z
Engine\Content\Slate\Icons\icon_tab_toolbar_16px.png	2017-03-26T03:30:02.414Z
Engine\Content\Slate\Icons\icon_tab_WidgetReflector_16x.png	2017-03-26T03:30:02.416Z
Engine\Content\Slate\Icons\icon_tab_WidgetReflector_40x.png	2017-03-26T03:30:02.422Z
Engine\Content\Slate\Icons\icon_undo_16px.png	2017-03-26T03:30:02.425Z
Engine\Content\Slate\Icons\icon_warning_16x.png	2017-03-26T03:30:02.427Z
Engine\Content\Slate\Icons\NextIcon.png	2017-03-26T03:30:02.430Z
Engine\Content\Slate\Icons\notificationlist_fail.png	2017-03-26T03:30:02.433Z
Engine\Content\Slate\Icons\notificationlist_success.png	2017-03-26T03:30:02.436Z
Engine\Content\Slate\Icons\PlusSymbol_12x.png	2017-03-26T03:30:02.440Z
Engine\Content\Slate\Icons\toolbar_expand_16x.png	2017-03-26T03:30:02.443Z
Engine\Content\Slate\Icons\TrashCan.png	2017-03-26T03:30:02.447Z
Engine\Content\Slate\Icons\TrashCan_Small.png	2017-03-26T03:30:02.449Z
Engine\Content\Slate\Icons\Edit\icon_Edit_Copy_16x.png	2017-03-26T03:30:02.358Z
Engine\Content\Slate\Icons\Edit\icon_Edit_Cut_16x.png	2017-03-26T03:30:02.367Z
Engine\Content\Slate\Icons\Edit\icon_Edit_Delete_16x.png	2017-03-26T03:30:02.375Z
Engine\Content\Slate\Icons\Edit\icon_Edit_Duplicate_16x.png	2017-03-26T03:30:02.377Z
Engine\Content\Slate\Icons\Edit\icon_Edit_Paste_16x.png	2017-03-26T03:30:02.381Z
Engine\Content\Slate\MessageLog\Log_Error.png	2017-03-26T03:30:02.452Z
Engine\Content\Slate\MessageLog\Log_Note.png	2017-03-26T03:30:02.455Z
Engine\Content\Slate\MessageLog\Log_Warning.png	2017-03-26T03:30:02.459Z
Engine\Content\Slate\Old\Border.PNG	2017-03-26T03:30:02.461Z
Engine\Content\Slate\Old\Button.png	2017-03-26T03:30:02.465Z
Engine\Content\Slate\Old\DashedBorder.png	2017-03-26T03:30:02.468Z
Engine\Content\Slate\Old\HyperlinkDotted.png	2017-03-26T03:30:02.471Z
Engine\Content\Slate\Old\HyperlinkUnderline.png	2017-03-26T03:30:02.477Z
Engine\Content\Slate\Old\Menu_Background.png	2017-03-26T03:30:02.479Z
Engine\Content\Slate\Old\Menu_Background_Inverted_Border_Bold.png	2017-03-26T03:30:02.482Z
Engine\Content\Slate\Old\Notification_Border_Flash.png	2017-03-26T03:30:02.484Z
Engine\Content\Slate\Old\ToolBar_Background.png	2017-03-26T03:30:02.487Z
Engine\Content\Slate\Old\ToolTip_Background.png	2017-03-26T03:30:02.489Z
Engine\Content\Slate\Old\ToolTip_BrightBackground.png	2017-03-26T03:30:02.492Z
Engine\Content\Slate\Old\White.png	2017-03-26T03:30:02.498Z
Engine\Content\Slate\Testing\BrushWireframe.png	2017-03-26T03:30:02.501Z
Engine\Content\Slate\Testing\DefaultPawn_16px.png	2017-03-26T03:30:02.507Z
Engine\Content\Slate\Testing\FlatColorSquare.png	2017-03-26T03:30:02.511Z
Engine\Content\Slate\Testing\GammaReference.png	2017-03-26T03:30:02.528Z
Engine\Content\Slate\Testing\Hyperlink.png	2017-03-26T03:30:02.534Z
Engine\Content\Slate\Testing\Lit.png	2017-03-26T03:30:02.538Z
Engine\Content\Slate\Testing\NewLevelBlank.png	2017-03-26T03:30:02.541Z
Engine\Content\Slate\Testing\TestRotation.png	2017-03-26T03:30:02.544Z
Engine\Content\Slate\Testing\UE4Icon.png	2017-03-26T03:30:02.547Z
Engine\Content\Slate\Testing\Unlit.png	2017-03-26T03:30:02.549Z
Engine\Content\Slate\Testing\Wireframe.png	2017-03-26T03:30:02.553Z
Engine\Content\Slate\Testing\Fonts\Roboto-BlackItalic.ttf	2017-03-26T03:30:02.516Z
Engine\Content\Slate\Testing\Fonts\Roboto-BoldItalic.ttf	2017-03-26T03:30:02.520Z
Engine\Content\Slate\Testing\Fonts\Roboto-Italic.ttf	2017-03-26T03:30:02.523Z
Engine\Content\Slate\Testing\Fonts\Roboto.tps	2017-03-26T03:30:02.526Z
Engine\Content\Slate\Tutorials\TutorialBorder.png	2017-03-26T03:30:02.555Z
Engine\Content\Slate\Tutorials\TutorialShadow.png	2017-03-26T03:30:02.558Z
Engine\Shaders\StandaloneRenderer\D3D\GammaCorrectionCommon.hlsl	2017-03-26T03:35:06.628Z
Engine\Shaders\StandaloneRenderer\D3D\SlateDefaultVertexShader.hlsl	2017-03-26T03:35:06.630Z
Engine\Shaders\StandaloneRenderer\D3D\SlateElementPixelShader.hlsl	2017-03-26T03:35:06.632Z
Engine\Shaders\StandaloneRenderer\OpenGL\SlateElementPixelShader.glsl	2017-03-26T03:35:06.634Z
Engine\Shaders\StandaloneRenderer\OpenGL\SlateVertexShader.glsl	2017-03-26T03:35:06.637Z
Engine\Shaders\StandaloneRenderer\OpenGL\SplashFragmentShader.glsl	2017-03-26T03:35:06.639Z
Engine\Shaders\StandaloneRenderer\OpenGL\SplashVertexShader.glsl	2017-03-26T03:35:06.641Z
Engine\Content\Internationalization\icudt53l\cnvalias.icu	2017-03-26T03:29:46.203Z
Engine\Content\Internationalization\icudt53l\confusables.cfu	2017-03-26T03:29:46.230Z
Engine\Content\Internationalization\icudt53l\en.res	2017-03-26T03:29:46.465Z
Engine\Content\Internationalization\icudt53l\en_001.res	2017-03-26T03:29:46.467Z
Engine\Content\Internationalization\icudt53l\en_150.res	2017-03-26T03:29:46.469Z
Engine\Content\Internationalization\icudt53l\en_AG.res	2017-03-26T03:29:46.472Z
Engine\Content\Internationalization\icudt53l\en_AI.res	2017-03-26T03:29:46.475Z
Engine\Content\Internationalization\icudt53l\en_AS.res	2017-03-26T03:29:46.477Z
Engine\Content\Internationalization\icudt53l\en_AU.res	2017-03-26T03:29:46.478Z
Engine\Content\Internationalization\icudt53l\en_BB.res	2017-03-26T03:29:46.480Z
Engine\Content\Internationalization\icudt53l\en_BE.res	2017-03-26T03:29:46.484Z
Engine\Content\Internationalization\icudt53l\en_BM.res	2017-03-26T03:29:46.486Z
Engine\Content\Internationalization\icudt53l\en_BS.res	2017-03-26T03:29:46.488Z
Engine\Content\Internationalization\icudt53l\en_BW.res	2017-03-26T03:29:46.490Z
Engine\Content\Internationalization\icudt53l\en_BZ.res	2017-03-26T03:29:46.491Z
Engine\Content\Internationalization\icudt53l\en_CA.res	2017-03-26T03:29:46.494Z
Engine\Content\Internationalization\icudt53l\en_CC.res	2017-03-26T03:29:46.497Z
Engine\Content\Internationalization\icudt53l\en_CK.res	2017-03-26T03:29:46.499Z
Engine\Content\Internationalization\icudt53l\en_CM.res	2017-03-26T03:29:46.501Z
Engine\Content\Internationalization\icudt53l\en_CX.res	2017-03-26T03:29:46.503Z
Engine\Content\Internationalization\icudt53l\en_DG.res	2017-03-26T03:29:46.505Z
Engine\Content\Internationalization\icudt53l\en_DM.res	2017-03-26T03:29:46.507Z
Engine\Content\Internationalization\icudt53l\en_ER.res	2017-03-26T03:29:46.510Z
Engine\Content\Internationalization\icudt53l\en_FJ.res	2017-03-26T03:29:46.512Z
Engine\Content\Internationalization\icudt53l\en_FK.res	2017-03-26T03:29:46.514Z
Engine\Content\Internationalization\icudt53l\en_FM.res	2017-03-26T03:29:46.517Z
Engine\Content\Internationalization\icudt53l\en_GB.res	2017-03-26T03:29:46.519Z
Engine\Content\Internationalization\icudt53l\en_GD.res	2017-03-26T03:29:46.523Z
Engine\Content\Internationalization\icudt53l\en_GG.res	2017-03-26T03:29:46.525Z
Engine\Content\Internationalization\icudt53l\en_GH.res	2017-03-26T03:29:46.527Z
Engine\Content\Internationalization\icudt53l\en_GI.res	2017-03-26T03:29:46.529Z
Engine\Content\Internationalization\icudt53l\en_GM.res	2017-03-26T03:29:46.531Z
Engine\Content\Internationalization\icudt53l\en_GU.res	2017-03-26T03:29:46.536Z
Engine\Content\Internationalization\icudt53l\en_GY.res	2017-03-26T03:29:46.538Z
Engine\Content\Internationalization\icudt53l\en_HK.res	2017-03-26T03:29:46.540Z
Engine\Content\Internationalization\icudt53l\en_IE.res	2017-03-26T03:29:46.542Z
Engine\Content\Internationalization\icudt53l\en_IM.res	2017-03-26T03:29:46.545Z
Engine\Content\Internationalization\icudt53l\en_IN.res	2017-03-26T03:29:46.548Z
Engine\Content\Internationalization\icudt53l\en_IO.res	2017-03-26T03:29:46.550Z
Engine\Content\Internationalization\icudt53l\en_JE.res	2017-03-26T03:29:46.553Z
Engine\Content\Internationalization\icudt53l\en_JM.res	2017-03-26T03:29:46.555Z
Engine\Content\Internationalization\icudt53l\en_KE.res	2017-03-26T03:29:46.557Z
Engine\Content\Internationalization\icudt53l\en_KI.res	2017-03-26T03:29:46.560Z
Engine\Content\Internationalization\icudt53l\en_KN.res	2017-03-26T03:29:46.562Z
Engine\Content\Internationalization\icudt53l\en_KY.res	2017-03-26T03:29:46.565Z
Engine\Content\Internationalization\icudt53l\en_LC.res	2017-03-26T03:29:46.566Z
Engine\Content\Internationalization\icudt53l\en_LR.res	2017-03-26T03:29:46.569Z
Engine\Content\Internationalization\icudt53l\en_LS.res	2017-03-26T03:29:46.571Z
Engine\Content\Internationalization\icudt53l\en_MG.res	2017-03-26T03:29:46.576Z
Engine\Content\Internationalization\icudt53l\en_MH.res	2017-03-26T03:29:46.578Z
Engine\Content\Internationalization\icudt53l\en_MO.res	2017-03-26T03:29:46.580Z
Engine\Content\Internationalization\icudt53l\en_MP.res	2017-03-26T03:29:46.584Z
Engine\Content\Internationalization\icudt53l\en_MS.res	2017-03-26T03:29:46.586Z
Engine\Content\Internationalization\icudt53l\en_MT.res	2017-03-26T03:29:46.589Z
Engine\Content\Internationalization\icudt53l\en_MU.res	2017-03-26T03:29:46.591Z
Engine\Content\Internationalization\icudt53l\en_MW.res	2017-03-26T03:29:46.593Z
Engine\Content\Internationalization\icudt53l\en_NA.res	2017-03-26T03:29:46.595Z
Engine\Content\Internationalization\icudt53l\en_NF.res	2017-03-26T03:29:46.599Z
Engine\Content\Internationalization\icudt53l\en_NG.res	2017-03-26T03:29:46.601Z
Engine\Content\Internationalization\icudt53l\en_NH.res	2017-03-26T03:29:46.603Z
Engine\Content\Internationalization\icudt53l\en_NR.res	2017-03-26T03:29:46.605Z
Engine\Content\Internationalization\icudt53l\en_NU.res	2017-03-26T03:29:46.607Z
Engine\Content\Internationalization\icudt53l\en_NZ.res	2017-03-26T03:29:46.611Z
Engine\Content\Internationalization\icudt53l\en_PG.res	2017-03-26T03:29:46.613Z
Engine\Content\Internationalization\icudt53l\en_PH.res	2017-03-26T03:29:46.616Z
Engine\Content\Internationalization\icudt53l\en_PK.res	2017-03-26T03:29:46.618Z
Engine\Content\Internationalization\icudt53l\en_PN.res	2017-03-26T03:29:46.620Z
Engine\Content\Internationalization\icudt53l\en_PR.res	2017-03-26T03:29:46.624Z
Engine\Content\Internationalization\icudt53l\en_PW.res	2017-03-26T03:29:46.626Z
Engine\Content\Internationalization\icudt53l\en_RH.res	2017-03-26T03:29:46.628Z
Engine\Content\Internationalization\icudt53l\en_RW.res	2017-03-26T03:29:46.630Z
Engine\Content\Internationalization\icudt53l\en_SB.res	2017-03-26T03:29:46.632Z
Engine\Content\Internationalization\icudt53l\en_SC.res	2017-03-26T03:29:46.633Z
Engine\Content\Internationalization\icudt53l\en_SD.res	2017-03-26T03:29:46.637Z
Engine\Content\Internationalization\icudt53l\en_SG.res	2017-03-26T03:29:46.639Z
Engine\Content\Internationalization\icudt53l\en_SH.res	2017-03-26T03:29:46.641Z
Engine\Content\Internationalization\icudt53l\en_SL.res	2017-03-26T03:29:46.643Z
Engine\Content\Internationalization\icudt53l\en_SS.res	2017-03-26T03:29:46.645Z
Engine\Content\Internationalization\icudt53l\en_SX.res	2017-03-26T03:29:46.652Z
Engine\Content\Internationalization\icudt53l\en_SZ.res	2017-03-26T03:29:46.655Z
Engine\Content\Internationalization\icudt53l\en_TC.res	2017-03-26T03:29:46.657Z
Engine\Content\Internationalization\icudt53l\en_TK.res	2017-03-26T03:29:46.659Z
Engine\Content\Internationalization\icudt53l\en_TO.res	2017-03-26T03:29:46.663Z
Engine\Content\Internationalization\icudt53l\en_TT.res	2017-03-26T03:29:46.665Z
Engine\Content\Internationalization\icudt53l\en_TV.res	2017-03-26T03:29:46.667Z
Engine\Content\Internationalization\icudt53l\en_TZ.res	2017-03-26T03:29:46.669Z
Engine\Content\Internationalization\icudt53l\en_UG.res	2017-03-26T03:29:46.673Z
Engine\Content\Internationalization\icudt53l\en_UM.res	2017-03-26T03:29:46.675Z
Engine\Content\Internationalization\icudt53l\en_US.res	2017-03-26T03:29:46.677Z
Engine\Content\Internationalization\icudt53l\en_US_POSIX.res	2017-03-26T03:29:46.679Z
Engine\Content\Internationalization\icudt53l\en_VC.res	2017-03-26T03:29:46.681Z
Engine\Content\Internationalization\icudt53l\en_VG.res	2017-03-26T03:29:46.683Z
Engine\Content\Internationalization\icudt53l\en_VI.res	2017-03-26T03:29:46.687Z
Engine\Content\Internationalization\icudt53l\en_VU.res	2017-03-26T03:29:46.690Z
Engine\Content\Internationalization\icudt53l\en_WS.res	2017-03-26T03:29:46.692Z
Engine\Content\Internationalization\icudt53l\en_ZA.res	2017-03-26T03:29:46.694Z
Engine\Content\Internationalization\icudt53l\en_ZM.res	2017-03-26T03:29:46.696Z
Engine\Content\Internationalization\icudt53l\en_ZW.res	2017-03-26T03:29:46.700Z
Engine\Content\Internationalization\icudt53l\ibm-1047_P100-1995.cnv	2017-03-26T03:29:46.702Z
Engine\Content\Internationalization\icudt53l\ibm-37_P100-1995.cnv	2017-03-26T03:29:46.704Z
Engine\Content\Internationalization\icudt53l\keyTypeData.res	2017-03-26T03:29:46.706Z
Engine\Content\Internationalization\icudt53l\leet.res	2017-03-26T03:29:46.940Z
Engine\Content\Internationalization\icudt53l\metaZones.res	2017-03-26T03:29:46.942Z
Engine\Content\Internationalization\icudt53l\nfc.nrm	2017-03-26T03:29:46.944Z
Engine\Content\Internationalization\icudt53l\nfkc.nrm	2017-03-26T03:29:46.946Z
Engine\Content\Internationalization\icudt53l\nfkc_cf.nrm	2017-03-26T03:29:46.949Z
Engine\Content\Internationalization\icudt53l\numberingSystems.res	2017-03-26T03:29:46.952Z
Engine\Content\Internationalization\icudt53l\plurals.res	2017-03-26T03:29:46.954Z
Engine\Content\Internationalization\icudt53l\pool.res	2017-03-26T03:29:46.956Z
Engine\Content\Internationalization\icudt53l\res_index.res	2017-03-26T03:29:47.195Z
Engine\Content\Internationalization\icudt53l\root.res	2017-03-26T03:29:47.197Z
Engine\Content\Internationalization\icudt53l\timezoneTypes.res	2017-03-26T03:29:47.201Z
Engine\Content\Internationalization\icudt53l\unames.icu	2017-03-26T03:29:47.204Z
Engine\Content\Internationalization\icudt53l\uts46.nrm	2017-03-26T03:29:47.206Z
Engine\Content\Internationalization\icudt53l\windowsZones.res	2017-03-26T03:29:47.208Z
Engine\Content\Internationalization\icudt53l\zoneinfo64.res	2017-03-26T03:29:47.467Z
Engine\Content\Internationalization\icudt53l\brkitr\char.brk	2017-03-26T03:29:46.172Z
Engine\Content\Internationalization\icudt53l\brkitr\en.res	2017-03-26T03:29:46.174Z
Engine\Content\Internationalization\icudt53l\brkitr\en_US.res	2017-03-26T03:29:46.176Z
Engine\Content\Internationalization\icudt53l\brkitr\en_US_POSIX.res	2017-03-26T03:29:46.178Z
Engine\Content\Internationalization\icudt53l\brkitr\leet.res	2017-03-26T03:29:46.180Z
Engine\Content\Internationalization\icudt53l\brkitr\line.brk	2017-03-26T03:29:46.185Z
Engine\Content\Internationalization\icudt53l\brkitr\res_index.res	2017-03-26T03:29:46.187Z
Engine\Content\Internationalization\icudt53l\brkitr\root.res	2017-03-26T03:29:46.189Z
Engine\Content\Internationalization\icudt53l\brkitr\sent.brk	2017-03-26T03:29:46.192Z
Engine\Content\Internationalization\icudt53l\brkitr\title.brk	2017-03-26T03:29:46.194Z
Engine\Content\Internationalization\icudt53l\brkitr\word.brk	2017-03-26T03:29:46.199Z
Engine\Content\Internationalization\icudt53l\brkitr\word_POSIX.brk	2017-03-26T03:29:46.202Z
Engine\Content\Internationalization\icudt53l\coll\en.res	2017-03-26T03:29:46.206Z
Engine\Content\Internationalization\icudt53l\coll\en_US.res	2017-03-26T03:29:46.211Z
Engine\Content\Internationalization\icudt53l\coll\en_US_POSIX.res	2017-03-26T03:29:46.214Z
Engine\Content\Internationalization\icudt53l\coll\leet.res	2017-03-26T03:29:46.216Z
Engine\Content\Internationalization\icudt53l\coll\res_index.res	2017-03-26T03:29:46.221Z
Engine\Content\Internationalization\icudt53l\coll\root.res	2017-03-26T03:29:46.224Z
Engine\Content\Internationalization\icudt53l\coll\ucadata.icu	2017-03-26T03:29:46.227Z
Engine\Content\Internationalization\icudt53l\curr\en.res	2017-03-26T03:29:46.234Z
Engine\Content\Internationalization\icudt53l\curr\en_001.res	2017-03-26T03:29:46.236Z
Engine\Content\Internationalization\icudt53l\curr\en_150.res	2017-03-26T03:29:46.238Z
Engine\Content\Internationalization\icudt53l\curr\en_AG.res	2017-03-26T03:29:46.240Z
Engine\Content\Internationalization\icudt53l\curr\en_AI.res	2017-03-26T03:29:46.242Z
Engine\Content\Internationalization\icudt53l\curr\en_AU.res	2017-03-26T03:29:46.245Z
Engine\Content\Internationalization\icudt53l\curr\en_BB.res	2017-03-26T03:29:46.249Z
Engine\Content\Internationalization\icudt53l\curr\en_BE.res	2017-03-26T03:29:46.251Z
Engine\Content\Internationalization\icudt53l\curr\en_BM.res	2017-03-26T03:29:46.253Z
Engine\Content\Internationalization\icudt53l\curr\en_BS.res	2017-03-26T03:29:46.255Z
Engine\Content\Internationalization\icudt53l\curr\en_BW.res	2017-03-26T03:29:46.257Z
Engine\Content\Internationalization\icudt53l\curr\en_BZ.res	2017-03-26T03:29:46.261Z
Engine\Content\Internationalization\icudt53l\curr\en_CA.res	2017-03-26T03:29:46.263Z
Engine\Content\Internationalization\icudt53l\curr\en_CC.res	2017-03-26T03:29:46.265Z
Engine\Content\Internationalization\icudt53l\curr\en_CK.res	2017-03-26T03:29:46.267Z
Engine\Content\Internationalization\icudt53l\curr\en_CM.res	2017-03-26T03:29:46.269Z
Engine\Content\Internationalization\icudt53l\curr\en_CX.res	2017-03-26T03:29:46.272Z
Engine\Content\Internationalization\icudt53l\curr\en_DG.res	2017-03-26T03:29:46.275Z
Engine\Content\Internationalization\icudt53l\curr\en_DM.res	2017-03-26T03:29:46.277Z
Engine\Content\Internationalization\icudt53l\curr\en_ER.res	2017-03-26T03:29:46.278Z
Engine\Content\Internationalization\icudt53l\curr\en_FJ.res	2017-03-26T03:29:46.281Z
Engine\Content\Internationalization\icudt53l\curr\en_FK.res	2017-03-26T03:29:46.285Z
Engine\Content\Internationalization\icudt53l\curr\en_FM.res	2017-03-26T03:29:46.288Z
Engine\Content\Internationalization\icudt53l\curr\en_GB.res	2017-03-26T03:29:46.290Z
Engine\Content\Internationalization\icudt53l\curr\en_GD.res	2017-03-26T03:29:46.292Z
Engine\Content\Internationalization\icudt53l\curr\en_GG.res	2017-03-26T03:29:46.294Z
Engine\Content\Internationalization\icudt53l\curr\en_GH.res	2017-03-26T03:29:46.298Z
Engine\Content\Internationalization\icudt53l\curr\en_GI.res	2017-03-26T03:29:46.301Z
Engine\Content\Internationalization\icudt53l\curr\en_GM.res	2017-03-26T03:29:46.302Z
Engine\Content\Internationalization\icudt53l\curr\en_GY.res	2017-03-26T03:29:46.304Z
Engine\Content\Internationalization\icudt53l\curr\en_HK.res	2017-03-26T03:29:46.307Z
Engine\Content\Internationalization\icudt53l\curr\en_IE.res	2017-03-26T03:29:46.309Z
Engine\Content\Internationalization\icudt53l\curr\en_IM.res	2017-03-26T03:29:46.312Z
Engine\Content\Internationalization\icudt53l\curr\en_IN.res	2017-03-26T03:29:46.314Z
Engine\Content\Internationalization\icudt53l\curr\en_IO.res	2017-03-26T03:29:46.317Z
Engine\Content\Internationalization\icudt53l\curr\en_JE.res	2017-03-26T03:29:46.321Z
Engine\Content\Internationalization\icudt53l\curr\en_JM.res	2017-03-26T03:29:46.324Z
Engine\Content\Internationalization\icudt53l\curr\en_KE.res	2017-03-26T03:29:46.326Z
Engine\Content\Internationalization\icudt53l\curr\en_KI.res	2017-03-26T03:29:46.328Z
Engine\Content\Internationalization\icudt53l\curr\en_KN.res	2017-03-26T03:29:46.331Z
Engine\Content\Internationalization\icudt53l\curr\en_KY.res	2017-03-26T03:29:46.334Z
Engine\Content\Internationalization\icudt53l\curr\en_LC.res	2017-03-26T03:29:46.336Z
Engine\Content\Internationalization\icudt53l\curr\en_LR.res	2017-03-26T03:29:46.338Z
Engine\Content\Internationalization\icudt53l\curr\en_LS.res	2017-03-26T03:29:46.340Z
Engine\Content\Internationalization\icudt53l\curr\en_MG.res	2017-03-26T03:29:46.342Z
Engine\Content\Internationalization\icudt53l\curr\en_MO.res	2017-03-26T03:29:46.346Z
Engine\Content\Internationalization\icudt53l\curr\en_MS.res	2017-03-26T03:29:46.348Z
Engine\Content\Internationalization\icudt53l\curr\en_MT.res	2017-03-26T03:29:46.351Z
Engine\Content\Internationalization\icudt53l\curr\en_MU.res	2017-03-26T03:29:46.353Z
Engine\Content\Internationalization\icudt53l\curr\en_MW.res	2017-03-26T03:29:46.355Z
Engine\Content\Internationalization\icudt53l\curr\en_NA.res	2017-03-26T03:29:46.359Z
Engine\Content\Internationalization\icudt53l\curr\en_NF.res	2017-03-26T03:29:46.362Z
Engine\Content\Internationalization\icudt53l\curr\en_NG.res	2017-03-26T03:29:46.364Z
Engine\Content\Internationalization\icudt53l\curr\en_NH.res	2017-03-26T03:29:46.366Z
Engine\Content\Internationalization\icudt53l\curr\en_NR.res	2017-03-26T03:29:46.368Z
Engine\Content\Internationalization\icudt53l\curr\en_NU.res	2017-03-26T03:29:46.372Z
Engine\Content\Internationalization\icudt53l\curr\en_NZ.res	2017-03-26T03:29:46.374Z
Engine\Content\Internationalization\icudt53l\curr\en_PG.res	2017-03-26T03:29:46.377Z
Engine\Content\Internationalization\icudt53l\curr\en_PH.res	2017-03-26T03:29:46.379Z
Engine\Content\Internationalization\icudt53l\curr\en_PK.res	2017-03-26T03:29:46.381Z
Engine\Content\Internationalization\icudt53l\curr\en_PN.res	2017-03-26T03:29:46.385Z
Engine\Content\Internationalization\icudt53l\curr\en_PW.res	2017-03-26T03:29:46.387Z
Engine\Content\Internationalization\icudt53l\curr\en_RH.res	2017-03-26T03:29:46.389Z
Engine\Content\Internationalization\icudt53l\curr\en_RW.res	2017-03-26T03:29:46.391Z
Engine\Content\Internationalization\icudt53l\curr\en_SB.res	2017-03-26T03:29:46.394Z
Engine\Content\Internationalization\icudt53l\curr\en_SC.res	2017-03-26T03:29:46.397Z
Engine\Content\Internationalization\icudt53l\curr\en_SD.res	2017-03-26T03:29:46.399Z
Engine\Content\Internationalization\icudt53l\curr\en_SG.res	2017-03-26T03:29:46.401Z
Engine\Content\Internationalization\icudt53l\curr\en_SH.res	2017-03-26T03:29:46.403Z
Engine\Content\Internationalization\icudt53l\curr\en_SL.res	2017-03-26T03:29:46.405Z
Engine\Content\Internationalization\icudt53l\curr\en_SS.res	2017-03-26T03:29:46.409Z
Engine\Content\Internationalization\icudt53l\curr\en_SX.res	2017-03-26T03:29:46.411Z
Engine\Content\Internationalization\icudt53l\curr\en_SZ.res	2017-03-26T03:29:46.414Z
Engine\Content\Internationalization\icudt53l\curr\en_TC.res	2017-03-26T03:29:46.416Z
Engine\Content\Internationalization\icudt53l\curr\en_TK.res	2017-03-26T03:29:46.419Z
Engine\Content\Internationalization\icudt53l\curr\en_TO.res	2017-03-26T03:29:46.423Z
Engine\Content\Internationalization\icudt53l\curr\en_TT.res	2017-03-26T03:29:46.425Z
Engine\Content\Internationalization\icudt53l\curr\en_TV.res	2017-03-26T03:29:46.427Z
Engine\Content\Internationalization\icudt53l\curr\en_TZ.res	2017-03-26T03:29:46.429Z
Engine\Content\Internationalization\icudt53l\curr\en_UG.res	2017-03-26T03:29:46.432Z
Engine\Content\Internationalization\icudt53l\curr\en_VC.res	2017-03-26T03:29:46.437Z
Engine\Content\Internationalization\icudt53l\curr\en_VG.res	2017-03-26T03:29:46.439Z
Engine\Content\Internationalization\icudt53l\curr\en_VU.res	2017-03-26T03:29:46.441Z
Engine\Content\Internationalization\icudt53l\curr\en_WS.res	2017-03-26T03:29:46.442Z
Engine\Content\Internationalization\icudt53l\curr\en_ZA.res	2017-03-26T03:29:46.446Z
Engine\Content\Internationalization\icudt53l\curr\en_ZM.res	2017-03-26T03:29:46.448Z
Engine\Content\Internationalization\icudt53l\curr\en_ZW.res	2017-03-26T03:29:46.451Z
Engine\Content\Internationalization\icudt53l\curr\leet.res	2017-03-26T03:29:46.453Z
Engine\Content\Internationalization\icudt53l\curr\pool.res	2017-03-26T03:29:46.455Z
Engine\Content\Internationalization\icudt53l\curr\res_index.res	2017-03-26T03:29:46.457Z
Engine\Content\Internationalization\icudt53l\curr\root.res	2017-03-26T03:29:46.460Z
Engine\Content\Internationalization\icudt53l\curr\supplementalData.res	2017-03-26T03:29:46.463Z
Engine\Content\Internationalization\icudt53l\lang\en.res	2017-03-26T03:29:46.710Z
Engine\Content\Internationalization\icudt53l\lang\en_150.res	2017-03-26T03:29:46.712Z
Engine\Content\Internationalization\icudt53l\lang\en_AG.res	2017-03-26T03:29:46.715Z
Engine\Content\Internationalization\icudt53l\lang\en_AI.res	2017-03-26T03:29:46.717Z
Engine\Content\Internationalization\icudt53l\lang\en_AU.res	2017-03-26T03:29:46.719Z
Engine\Content\Internationalization\icudt53l\lang\en_BB.res	2017-03-26T03:29:46.723Z
Engine\Content\Internationalization\icudt53l\lang\en_BE.res	2017-03-26T03:29:46.725Z
Engine\Content\Internationalization\icudt53l\lang\en_BM.res	2017-03-26T03:29:46.727Z
Engine\Content\Internationalization\icudt53l\lang\en_BS.res	2017-03-26T03:29:46.729Z
Engine\Content\Internationalization\icudt53l\lang\en_BW.res	2017-03-26T03:29:46.732Z
Engine\Content\Internationalization\icudt53l\lang\en_BZ.res	2017-03-26T03:29:46.734Z
Engine\Content\Internationalization\icudt53l\lang\en_CC.res	2017-03-26T03:29:46.737Z
Engine\Content\Internationalization\icudt53l\lang\en_CK.res	2017-03-26T03:29:46.739Z
Engine\Content\Internationalization\icudt53l\lang\en_CM.res	2017-03-26T03:29:46.741Z
Engine\Content\Internationalization\icudt53l\lang\en_CX.res	2017-03-26T03:29:46.743Z
Engine\Content\Internationalization\icudt53l\lang\en_DG.res	2017-03-26T03:29:46.746Z
Engine\Content\Internationalization\icudt53l\lang\en_DM.res	2017-03-26T03:29:46.749Z
Engine\Content\Internationalization\icudt53l\lang\en_ER.res	2017-03-26T03:29:46.752Z
Engine\Content\Internationalization\icudt53l\lang\en_FJ.res	2017-03-26T03:29:46.754Z
Engine\Content\Internationalization\icudt53l\lang\en_FK.res	2017-03-26T03:29:46.756Z
Engine\Content\Internationalization\icudt53l\lang\en_FM.res	2017-03-26T03:29:46.758Z
Engine\Content\Internationalization\icudt53l\lang\en_GB.res	2017-03-26T03:29:46.760Z
Engine\Content\Internationalization\icudt53l\lang\en_GD.res	2017-03-26T03:29:46.763Z
Engine\Content\Internationalization\icudt53l\lang\en_GG.res	2017-03-26T03:29:46.765Z
Engine\Content\Internationalization\icudt53l\lang\en_GH.res	2017-03-26T03:29:46.768Z
Engine\Content\Internationalization\icudt53l\lang\en_GI.res	2017-03-26T03:29:46.772Z
Engine\Content\Internationalization\icudt53l\lang\en_GM.res	2017-03-26T03:29:46.776Z
Engine\Content\Internationalization\icudt53l\lang\en_GY.res	2017-03-26T03:29:46.778Z
Engine\Content\Internationalization\icudt53l\lang\en_HK.res	2017-03-26T03:29:46.781Z
Engine\Content\Internationalization\icudt53l\lang\en_IE.res	2017-03-26T03:29:46.787Z
Engine\Content\Internationalization\icudt53l\lang\en_IM.res	2017-03-26T03:29:46.790Z
Engine\Content\Internationalization\icudt53l\lang\en_IN.res	2017-03-26T03:29:46.794Z
Engine\Content\Internationalization\icudt53l\lang\en_IO.res	2017-03-26T03:29:46.796Z
Engine\Content\Internationalization\icudt53l\lang\en_JE.res	2017-03-26T03:29:46.798Z
Engine\Content\Internationalization\icudt53l\lang\en_JM.res	2017-03-26T03:29:46.801Z
Engine\Content\Internationalization\icudt53l\lang\en_KE.res	2017-03-26T03:29:46.805Z
Engine\Content\Internationalization\icudt53l\lang\en_KI.res	2017-03-26T03:29:46.807Z
Engine\Content\Internationalization\icudt53l\lang\en_KN.res	2017-03-26T03:29:46.809Z
Engine\Content\Internationalization\icudt53l\lang\en_KY.res	2017-03-26T03:29:46.813Z
Engine\Content\Internationalization\icudt53l\lang\en_LC.res	2017-03-26T03:29:46.815Z
Engine\Content\Internationalization\icudt53l\lang\en_LR.res	2017-03-26T03:29:46.818Z
Engine\Content\Internationalization\icudt53l\lang\en_LS.res	2017-03-26T03:29:46.820Z
Engine\Content\Internationalization\icudt53l\lang\en_MG.res	2017-03-26T03:29:46.822Z
Engine\Content\Internationalization\icudt53l\lang\en_MO.res	2017-03-26T03:29:46.824Z
Engine\Content\Internationalization\icudt53l\lang\en_MS.res	2017-03-26T03:29:46.828Z
Engine\Content\Internationalization\icudt53l\lang\en_MT.res	2017-03-26T03:29:46.830Z
Engine\Content\Internationalization\icudt53l\lang\en_MU.res	2017-03-26T03:29:46.832Z
Engine\Content\Internationalization\icudt53l\lang\en_MW.res	2017-03-26T03:29:46.834Z
Engine\Content\Internationalization\icudt53l\lang\en_NA.res	2017-03-26T03:29:46.836Z
Engine\Content\Internationalization\icudt53l\lang\en_NF.res	2017-03-26T03:29:46.840Z
Engine\Content\Internationalization\icudt53l\lang\en_NG.res	2017-03-26T03:29:46.842Z
Engine\Content\Internationalization\icudt53l\lang\en_NH.res	2017-03-26T03:29:46.844Z
Engine\Content\Internationalization\icudt53l\lang\en_NR.res	2017-03-26T03:29:46.846Z
Engine\Content\Internationalization\icudt53l\lang\en_NU.res	2017-03-26T03:29:46.850Z
Engine\Content\Internationalization\icudt53l\lang\en_NZ.res	2017-03-26T03:29:46.852Z
Engine\Content\Internationalization\icudt53l\lang\en_PG.res	2017-03-26T03:29:46.854Z
Engine\Content\Internationalization\icudt53l\lang\en_PH.res	2017-03-26T03:29:46.857Z
Engine\Content\Internationalization\icudt53l\lang\en_PK.res	2017-03-26T03:29:46.859Z
Engine\Content\Internationalization\icudt53l\lang\en_PN.res	2017-03-26T03:29:46.862Z
Engine\Content\Internationalization\icudt53l\lang\en_PW.res	2017-03-26T03:29:46.865Z
Engine\Content\Internationalization\icudt53l\lang\en_RH.res	2017-03-26T03:29:46.867Z
Engine\Content\Internationalization\icudt53l\lang\en_RW.res	2017-03-26T03:29:46.869Z
Engine\Content\Internationalization\icudt53l\lang\en_SB.res	2017-03-26T03:29:46.871Z
Engine\Content\Internationalization\icudt53l\lang\en_SC.res	2017-03-26T03:29:46.874Z
Engine\Content\Internationalization\icudt53l\lang\en_SD.res	2017-03-26T03:29:46.877Z
Engine\Content\Internationalization\icudt53l\lang\en_SG.res	2017-03-26T03:29:46.879Z
Engine\Content\Internationalization\icudt53l\lang\en_SH.res	2017-03-26T03:29:46.881Z
Engine\Content\Internationalization\icudt53l\lang\en_SL.res	2017-03-26T03:29:46.883Z
Engine\Content\Internationalization\icudt53l\lang\en_SS.res	2017-03-26T03:29:46.886Z
Engine\Content\Internationalization\icudt53l\lang\en_SX.res	2017-03-26T03:29:46.890Z
Engine\Content\Internationalization\icudt53l\lang\en_SZ.res	2017-03-26T03:29:46.892Z
Engine\Content\Internationalization\icudt53l\lang\en_TC.res	2017-03-26T03:29:46.894Z
Engine\Content\Internationalization\icudt53l\lang\en_TK.res	2017-03-26T03:29:46.896Z
Engine\Content\Internationalization\icudt53l\lang\en_TO.res	2017-03-26T03:29:46.898Z
Engine\Content\Internationalization\icudt53l\lang\en_TT.res	2017-03-26T03:29:46.902Z
Engine\Content\Internationalization\icudt53l\lang\en_TV.res	2017-03-26T03:29:46.904Z
Engine\Content\Internationalization\icudt53l\lang\en_TZ.res	2017-03-26T03:29:46.906Z
Engine\Content\Internationalization\icudt53l\lang\en_UG.res	2017-03-26T03:29:46.908Z
Engine\Content\Internationalization\icudt53l\lang\en_VC.res	2017-03-26T03:29:46.910Z
Engine\Content\Internationalization\icudt53l\lang\en_VG.res	2017-03-26T03:29:46.914Z
Engine\Content\Internationalization\icudt53l\lang\en_VU.res	2017-03-26T03:29:46.917Z
Engine\Content\Internationalization\icudt53l\lang\en_WS.res	2017-03-26T03:29:46.919Z
Engine\Content\Internationalization\icudt53l\lang\en_ZA.res	2017-03-26T03:29:46.921Z
Engine\Content\Internationalization\icudt53l\lang\en_ZM.res	2017-03-26T03:29:46.925Z
Engine\Content\Internationalization\icudt53l\lang\en_ZW.res	2017-03-26T03:29:46.927Z
Engine\Content\Internationalization\icudt53l\lang\leet.res	2017-03-26T03:29:46.929Z
Engine\Content\Internationalization\icudt53l\lang\pool.res	2017-03-26T03:29:46.932Z
Engine\Content\Internationalization\icudt53l\lang\res_index.res	2017-03-26T03:29:46.934Z
Engine\Content\Internationalization\icudt53l\lang\root.res	2017-03-26T03:29:46.936Z
Engine\Content\Internationalization\icudt53l\rbnf\en.res	2017-03-26T03:29:46.959Z
Engine\Content\Internationalization\icudt53l\rbnf\leet.res	2017-03-26T03:29:46.963Z
Engine\Content\Internationalization\icudt53l\rbnf\res_index.res	2017-03-26T03:29:46.966Z
Engine\Content\Internationalization\icudt53l\rbnf\root.res	2017-03-26T03:29:46.968Z
Engine\Content\Internationalization\icudt53l\region\en.res	2017-03-26T03:29:46.970Z
Engine\Content\Internationalization\icudt53l\region\en_150.res	2017-03-26T03:29:46.972Z
Engine\Content\Internationalization\icudt53l\region\en_AG.res	2017-03-26T03:29:46.975Z
Engine\Content\Internationalization\icudt53l\region\en_AI.res	2017-03-26T03:29:46.977Z
Engine\Content\Internationalization\icudt53l\region\en_AU.res	2017-03-26T03:29:46.979Z
Engine\Content\Internationalization\icudt53l\region\en_BB.res	2017-03-26T03:29:46.982Z
Engine\Content\Internationalization\icudt53l\region\en_BE.res	2017-03-26T03:29:46.984Z
Engine\Content\Internationalization\icudt53l\region\en_BM.res	2017-03-26T03:29:46.988Z
Engine\Content\Internationalization\icudt53l\region\en_BS.res	2017-03-26T03:29:46.990Z
Engine\Content\Internationalization\icudt53l\region\en_BW.res	2017-03-26T03:29:46.992Z
Engine\Content\Internationalization\icudt53l\region\en_BZ.res	2017-03-26T03:29:46.995Z
Engine\Content\Internationalization\icudt53l\region\en_CC.res	2017-03-26T03:29:46.997Z
Engine\Content\Internationalization\icudt53l\region\en_CK.res	2017-03-26T03:29:46.999Z
Engine\Content\Internationalization\icudt53l\region\en_CM.res	2017-03-26T03:29:47.003Z
Engine\Content\Internationalization\icudt53l\region\en_CX.res	2017-03-26T03:29:47.006Z
Engine\Content\Internationalization\icudt53l\region\en_DG.res	2017-03-26T03:29:47.007Z
Engine\Content\Internationalization\icudt53l\region\en_DM.res	2017-03-26T03:29:47.009Z
Engine\Content\Internationalization\icudt53l\region\en_ER.res	2017-03-26T03:29:47.011Z
Engine\Content\Internationalization\icudt53l\region\en_FJ.res	2017-03-26T03:29:47.016Z
Engine\Content\Internationalization\icudt53l\region\en_FK.res	2017-03-26T03:29:47.018Z
Engine\Content\Internationalization\icudt53l\region\en_FM.res	2017-03-26T03:29:47.020Z
Engine\Content\Internationalization\icudt53l\region\en_GB.res	2017-03-26T03:29:47.022Z
Engine\Content\Internationalization\icudt53l\region\en_GD.res	2017-03-26T03:29:47.025Z
Engine\Content\Internationalization\icudt53l\region\en_GG.res	2017-03-26T03:29:47.029Z
Engine\Content\Internationalization\icudt53l\region\en_GH.res	2017-03-26T03:29:47.031Z
Engine\Content\Internationalization\icudt53l\region\en_GI.res	2017-03-26T03:29:47.033Z
Engine\Content\Internationalization\icudt53l\region\en_GM.res	2017-03-26T03:29:47.035Z
Engine\Content\Internationalization\icudt53l\region\en_GY.res	2017-03-26T03:29:47.039Z
Engine\Content\Internationalization\icudt53l\region\en_HK.res	2017-03-26T03:29:47.041Z
Engine\Content\Internationalization\icudt53l\region\en_IE.res	2017-03-26T03:29:47.044Z
Engine\Content\Internationalization\icudt53l\region\en_IM.res	2017-03-26T03:29:47.046Z
Engine\Content\Internationalization\icudt53l\region\en_IN.res	2017-03-26T03:29:47.048Z
Engine\Content\Internationalization\icudt53l\region\en_IO.res	2017-03-26T03:29:47.055Z
Engine\Content\Internationalization\icudt53l\region\en_JE.res	2017-03-26T03:29:47.057Z
Engine\Content\Internationalization\icudt53l\region\en_JM.res	2017-03-26T03:29:47.059Z
Engine\Content\Internationalization\icudt53l\region\en_KE.res	2017-03-26T03:29:47.061Z
Engine\Content\Internationalization\icudt53l\region\en_KI.res	2017-03-26T03:29:47.065Z
Engine\Content\Internationalization\icudt53l\region\en_KN.res	2017-03-26T03:29:47.067Z
Engine\Content\Internationalization\icudt53l\region\en_KY.res	2017-03-26T03:29:47.069Z
Engine\Content\Internationalization\icudt53l\region\en_LC.res	2017-03-26T03:29:47.071Z
Engine\Content\Internationalization\icudt53l\region\en_LR.res	2017-03-26T03:29:47.072Z
Engine\Content\Internationalization\icudt53l\region\en_LS.res	2017-03-26T03:29:47.075Z
Engine\Content\Internationalization\icudt53l\region\en_MG.res	2017-03-26T03:29:47.078Z
Engine\Content\Internationalization\icudt53l\region\en_MO.res	2017-03-26T03:29:47.079Z
Engine\Content\Internationalization\icudt53l\region\en_MS.res	2017-03-26T03:29:47.082Z
Engine\Content\Internationalization\icudt53l\region\en_MT.res	2017-03-26T03:29:47.084Z
Engine\Content\Internationalization\icudt53l\region\en_MU.res	2017-03-26T03:29:47.086Z
Engine\Content\Internationalization\icudt53l\region\en_MW.res	2017-03-26T03:29:47.090Z
Engine\Content\Internationalization\icudt53l\region\en_NA.res	2017-03-26T03:29:47.092Z
Engine\Content\Internationalization\icudt53l\region\en_NF.res	2017-03-26T03:29:47.094Z
Engine\Content\Internationalization\icudt53l\region\en_NG.res	2017-03-26T03:29:47.096Z
Engine\Content\Internationalization\icudt53l\region\en_NH.res	2017-03-26T03:29:47.098Z
Engine\Content\Internationalization\icudt53l\region\en_NR.res	2017-03-26T03:29:47.101Z
Engine\Content\Internationalization\icudt53l\region\en_NU.res	2017-03-26T03:29:47.103Z
Engine\Content\Internationalization\icudt53l\region\en_NZ.res	2017-03-26T03:29:47.105Z
Engine\Content\Internationalization\icudt53l\region\en_PG.res	2017-03-26T03:29:47.107Z
Engine\Content\Internationalization\icudt53l\region\en_PH.res	2017-03-26T03:29:47.108Z
Engine\Content\Internationalization\icudt53l\region\en_PK.res	2017-03-26T03:29:47.110Z
Engine\Content\Internationalization\icudt53l\region\en_PN.res	2017-03-26T03:29:47.114Z
Engine\Content\Internationalization\icudt53l\region\en_PW.res	2017-03-26T03:29:47.116Z
Engine\Content\Internationalization\icudt53l\region\en_RH.res	2017-03-26T03:29:47.118Z
Engine\Content\Internationalization\icudt53l\region\en_RW.res	2017-03-26T03:29:47.121Z
Engine\Content\Internationalization\icudt53l\region\en_SB.res	2017-03-26T03:29:47.126Z
Engine\Content\Internationalization\icudt53l\region\en_SC.res	2017-03-26T03:29:47.128Z
Engine\Content\Internationalization\icudt53l\region\en_SD.res	2017-03-26T03:29:47.130Z
Engine\Content\Internationalization\icudt53l\region\en_SG.res	2017-03-26T03:29:47.131Z
Engine\Content\Internationalization\icudt53l\region\en_SH.res	2017-03-26T03:29:47.133Z
Engine\Content\Internationalization\icudt53l\region\en_SL.res	2017-03-26T03:29:47.135Z
Engine\Content\Internationalization\icudt53l\region\en_SS.res	2017-03-26T03:29:47.138Z
Engine\Content\Internationalization\icudt53l\region\en_SX.res	2017-03-26T03:29:47.140Z
Engine\Content\Internationalization\icudt53l\region\en_SZ.res	2017-03-26T03:29:47.142Z
Engine\Content\Internationalization\icudt53l\region\en_TC.res	2017-03-26T03:29:47.145Z
Engine\Content\Internationalization\icudt53l\region\en_TK.res	2017-03-26T03:29:47.147Z
Engine\Content\Internationalization\icudt53l\region\en_TO.res	2017-03-26T03:29:47.152Z
Engine\Content\Internationalization\icudt53l\region\en_TT.res	2017-03-26T03:29:47.155Z
Engine\Content\Internationalization\icudt53l\region\en_TV.res	2017-03-26T03:29:47.157Z
Engine\Content\Internationalization\icudt53l\region\en_TZ.res	2017-03-26T03:29:47.160Z
Engine\Content\Internationalization\icudt53l\region\en_UG.res	2017-03-26T03:29:47.162Z
Engine\Content\Internationalization\icudt53l\region\en_VC.res	2017-03-26T03:29:47.166Z
Engine\Content\Internationalization\icudt53l\region\en_VG.res	2017-03-26T03:29:47.169Z
Engine\Content\Internationalization\icudt53l\region\en_VU.res	2017-03-26T03:29:47.170Z
Engine\Content\Internationalization\icudt53l\region\en_WS.res	2017-03-26T03:29:47.172Z
Engine\Content\Internationalization\icudt53l\region\en_ZA.res	2017-03-26T03:29:47.177Z
Engine\Content\Internationalization\icudt53l\region\en_ZM.res	2017-03-26T03:29:47.179Z
Engine\Content\Internationalization\icudt53l\region\en_ZW.res	2017-03-26T03:29:47.182Z
Engine\Content\Internationalization\icudt53l\region\leet.res	2017-03-26T03:29:47.184Z
Engine\Content\Internationalization\icudt53l\region\pool.res	2017-03-26T03:29:47.187Z
Engine\Content\Internationalization\icudt53l\region\res_index.res	2017-03-26T03:29:47.190Z
Engine\Content\Internationalization\icudt53l\region\root.res	2017-03-26T03:29:47.193Z
Engine\Content\Internationalization\icudt53l\zone\en.res	2017-03-26T03:29:47.211Z
Engine\Content\Internationalization\icudt53l\zone\en_001.res	2017-03-26T03:29:47.215Z
Engine\Content\Internationalization\icudt53l\zone\en_150.res	2017-03-26T03:29:47.218Z
Engine\Content\Internationalization\icudt53l\zone\en_AG.res	2017-03-26T03:29:47.220Z
Engine\Content\Internationalization\icudt53l\zone\en_AI.res	2017-03-26T03:29:47.222Z
Engine\Content\Internationalization\icudt53l\zone\en_AU.res	2017-03-26T03:29:47.228Z
Engine\Content\Internationalization\icudt53l\zone\en_BB.res	2017-03-26T03:29:47.231Z
Engine\Content\Internationalization\icudt53l\zone\en_BE.res	2017-03-26T03:29:47.233Z
Engine\Content\Internationalization\icudt53l\zone\en_BM.res	2017-03-26T03:29:47.236Z
Engine\Content\Internationalization\icudt53l\zone\en_BS.res	2017-03-26T03:29:47.239Z
Engine\Content\Internationalization\icudt53l\zone\en_BW.res	2017-03-26T03:29:47.241Z
Engine\Content\Internationalization\icudt53l\zone\en_BZ.res	2017-03-26T03:29:47.243Z
Engine\Content\Internationalization\icudt53l\zone\en_CA.res	2017-03-26T03:29:47.246Z
Engine\Content\Internationalization\icudt53l\zone\en_CC.res	2017-03-26T03:29:47.248Z
Engine\Content\Internationalization\icudt53l\zone\en_CK.res	2017-03-26T03:29:47.251Z
Engine\Content\Internationalization\icudt53l\zone\en_CM.res	2017-03-26T03:29:47.256Z
Engine\Content\Internationalization\icudt53l\zone\en_CX.res	2017-03-26T03:29:47.258Z
Engine\Content\Internationalization\icudt53l\zone\en_DG.res	2017-03-26T03:29:47.260Z
Engine\Content\Internationalization\icudt53l\zone\en_DM.res	2017-03-26T03:29:47.263Z
Engine\Content\Internationalization\icudt53l\zone\en_ER.res	2017-03-26T03:29:47.266Z
Engine\Content\Internationalization\icudt53l\zone\en_FJ.res	2017-03-26T03:29:47.268Z
Engine\Content\Internationalization\icudt53l\zone\en_FK.res	2017-03-26T03:29:47.270Z
Engine\Content\Internationalization\icudt53l\zone\en_FM.res	2017-03-26T03:29:47.272Z
Engine\Content\Internationalization\icudt53l\zone\en_GB.res	2017-03-26T03:29:47.276Z
Engine\Content\Internationalization\icudt53l\zone\en_GD.res	2017-03-26T03:29:47.278Z
Engine\Content\Internationalization\icudt53l\zone\en_GG.res	2017-03-26T03:29:47.280Z
Engine\Content\Internationalization\icudt53l\zone\en_GH.res	2017-03-26T03:29:47.283Z
Engine\Content\Internationalization\icudt53l\zone\en_GI.res	2017-03-26T03:29:47.285Z
Engine\Content\Internationalization\icudt53l\zone\en_GM.res	2017-03-26T03:29:47.289Z
Engine\Content\Internationalization\icudt53l\zone\en_GU.res	2017-03-26T03:29:47.293Z
Engine\Content\Internationalization\icudt53l\zone\en_GY.res	2017-03-26T03:29:47.295Z
Engine\Content\Internationalization\icudt53l\zone\en_HK.res	2017-03-26T03:29:47.297Z
Engine\Content\Internationalization\icudt53l\zone\en_IE.res	2017-03-26T03:29:47.299Z
Engine\Content\Internationalization\icudt53l\zone\en_IM.res	2017-03-26T03:29:47.302Z
Engine\Content\Internationalization\icudt53l\zone\en_IN.res	2017-03-26T03:29:47.304Z
Engine\Content\Internationalization\icudt53l\zone\en_IO.res	2017-03-26T03:29:47.307Z
Engine\Content\Internationalization\icudt53l\zone\en_JE.res	2017-03-26T03:29:47.309Z
Engine\Content\Internationalization\icudt53l\zone\en_JM.res	2017-03-26T03:29:47.311Z
Engine\Content\Internationalization\icudt53l\zone\en_KE.res	2017-03-26T03:29:47.315Z
Engine\Content\Internationalization\icudt53l\zone\en_KI.res	2017-03-26T03:29:47.318Z
Engine\Content\Internationalization\icudt53l\zone\en_KN.res	2017-03-26T03:29:47.320Z
Engine\Content\Internationalization\icudt53l\zone\en_KY.res	2017-03-26T03:29:47.322Z
Engine\Content\Internationalization\icudt53l\zone\en_LC.res	2017-03-26T03:29:47.324Z
Engine\Content\Internationalization\icudt53l\zone\en_LR.res	2017-03-26T03:29:47.329Z
Engine\Content\Internationalization\icudt53l\zone\en_LS.res	2017-03-26T03:29:47.331Z
Engine\Content\Internationalization\icudt53l\zone\en_MG.res	2017-03-26T03:29:47.333Z
Engine\Content\Internationalization\icudt53l\zone\en_MH.res	2017-03-26T03:29:47.335Z
Engine\Content\Internationalization\icudt53l\zone\en_MO.res	2017-03-26T03:29:47.337Z
Engine\Content\Internationalization\icudt53l\zone\en_MP.res	2017-03-26T03:29:47.340Z
Engine\Content\Internationalization\icudt53l\zone\en_MS.res	2017-03-26T03:29:47.343Z
Engine\Content\Internationalization\icudt53l\zone\en_MT.res	2017-03-26T03:29:47.345Z
Engine\Content\Internationalization\icudt53l\zone\en_MU.res	2017-03-26T03:29:47.347Z
Engine\Content\Internationalization\icudt53l\zone\en_MW.res	2017-03-26T03:29:47.351Z
Engine\Content\Internationalization\icudt53l\zone\en_NA.res	2017-03-26T03:29:47.354Z
Engine\Content\Internationalization\icudt53l\zone\en_NF.res	2017-03-26T03:29:47.357Z
Engine\Content\Internationalization\icudt53l\zone\en_NG.res	2017-03-26T03:29:47.360Z
Engine\Content\Internationalization\icudt53l\zone\en_NH.res	2017-03-26T03:29:47.362Z
Engine\Content\Internationalization\icudt53l\zone\en_NR.res	2017-03-26T03:29:47.368Z
Engine\Content\Internationalization\icudt53l\zone\en_NU.res	2017-03-26T03:29:47.372Z
Engine\Content\Internationalization\icudt53l\zone\en_NZ.res	2017-03-26T03:29:47.374Z
Engine\Content\Internationalization\icudt53l\zone\en_PG.res	2017-03-26T03:29:47.379Z
Engine\Content\Internationalization\icudt53l\zone\en_PH.res	2017-03-26T03:29:47.381Z
Engine\Content\Internationalization\icudt53l\zone\en_PK.res	2017-03-26T03:29:47.383Z
Engine\Content\Internationalization\icudt53l\zone\en_PN.res	2017-03-26T03:29:47.385Z
Engine\Content\Internationalization\icudt53l\zone\en_PW.res	2017-03-26T03:29:47.390Z
Engine\Content\Internationalization\icudt53l\zone\en_RH.res	2017-03-26T03:29:47.392Z
Engine\Content\Internationalization\icudt53l\zone\en_RW.res	2017-03-26T03:29:47.394Z
Engine\Content\Internationalization\icudt53l\zone\en_SB.res	2017-03-26T03:29:47.397Z
Engine\Content\Internationalization\icudt53l\zone\en_SC.res	2017-03-26T03:29:47.399Z
Engine\Content\Internationalization\icudt53l\zone\en_SD.res	2017-03-26T03:29:47.402Z
Engine\Content\Internationalization\icudt53l\zone\en_SG.res	2017-03-26T03:29:47.404Z
Engine\Content\Internationalization\icudt53l\zone\en_SH.res	2017-03-26T03:29:47.406Z
Engine\Content\Internationalization\icudt53l\zone\en_SL.res	2017-03-26T03:29:47.408Z
Engine\Content\Internationalization\icudt53l\zone\en_SS.res	2017-03-26T03:29:47.410Z
Engine\Content\Internationalization\icudt53l\zone\en_SX.res	2017-03-26T03:29:47.414Z
Engine\Content\Internationalization\icudt53l\zone\en_SZ.res	2017-03-26T03:29:47.417Z
Engine\Content\Internationalization\icudt53l\zone\en_TC.res	2017-03-26T03:29:47.419Z
Engine\Content\Internationalization\icudt53l\zone\en_TK.res	2017-03-26T03:29:47.421Z
Engine\Content\Internationalization\icudt53l\zone\en_TO.res	2017-03-26T03:29:47.424Z
Engine\Content\Internationalization\icudt53l\zone\en_TT.res	2017-03-26T03:29:47.426Z
Engine\Content\Internationalization\icudt53l\zone\en_TV.res	2017-03-26T03:29:47.430Z
Engine\Content\Internationalization\icudt53l\zone\en_TZ.res	2017-03-26T03:29:47.432Z
Engine\Content\Internationalization\icudt53l\zone\en_UG.res	2017-03-26T03:29:47.434Z
Engine\Content\Internationalization\icudt53l\zone\en_VC.res	2017-03-26T03:29:47.436Z
Engine\Content\Internationalization\icudt53l\zone\en_VG.res	2017-03-26T03:29:47.440Z
Engine\Content\Internationalization\icudt53l\zone\en_VU.res	2017-03-26T03:29:47.442Z
Engine\Content\Internationalization\icudt53l\zone\en_WS.res	2017-03-26T03:29:47.444Z
Engine\Content\Internationalization\icudt53l\zone\en_ZA.res	2017-03-26T03:29:47.446Z
Engine\Content\Internationalization\icudt53l\zone\en_ZM.res	2017-03-26T03:29:47.448Z
Engine\Content\Internationalization\icudt53l\zone\en_ZW.res	2017-03-26T03:29:47.452Z
Engine\Content\Internationalization\icudt53l\zone\leet.res	2017-03-26T03:29:47.455Z
Engine\Content\Internationalization\icudt53l\zone\pool.res	2017-03-26T03:29:47.457Z
Engine\Content\Internationalization\icudt53l\zone\res_index.res	2017-03-26T03:29:47.460Z
Engine\Content\Internationalization\icudt53l\zone\root.res	2017-03-26T03:29:47.463Z
Engine\Programs\CrashReportClient\Config\DefaultEngine.ini	2017-03-26T03:35:06.103Z
